Node,Group,RelRisk,InAnalysis
DHB,Area outside District Health Board,0,N
DHB,Auckland,0,N
DHB,Bay of Plenty,93,Y
DHB,Canterbury,84,Y
DHB,Capital and Coast,139,Y
DHB,Counties Manukau,0,N
DHB,Hawkes Bay,81,Y
DHB,Hutt Valley,78,Y
DHB,Lakes,54,Y
DHB,MidCentral,40,Y
DHB,Missing NHI,0,N
DHB,Nelson Marlborough,49,Y
DHB,Northland,131,Y
DHB,South Canterbury,12,Y
DHB,Southern,39,Y
DHB,Tairawhiti,9,Y
DHB,Taranaki,66,Y
DHB,Waikato,317,Y
DHB,Wairarapa,16,Y
DHB,Waitemata,0,N
DHB,West Coast,2,Y
DHB,Whanganui,25,Y
Ethnicity,Asian,1,Y
Ethnicity,Maori,3.8379,Y
Ethnicity,Other,1.2432,Y
Ethnicity,Pacific,10.5391,Y
Age,<5,3.9336,Y
Age,5-19,15.2656,Y
Age,20-39,13.4688,Y
Age,40-64,8.0703,Y
Age,65+,1,Y
Vaccine,Unvaccinated,7,Y
Vaccine,Vaccinated,1,Y
Contact,N,1,Y
Contact,Y,2,Y
